0000000000000000000000000000000000000000000000000000000000000000000000000000000000000000000000000000000000000000000000000000000000
0000000000000000000000000000000000000000000000000000000000000000000000000000000000000000000000000000000000000000000000000000000000
0000000000000000000000000000000000000000000000000000000000000000000000000000000000000000000000000000000000000000000000000000000000
0000000000000000000000000000000000000000000000000000000000000000000000000000000000000000000000000000000000000000000000000000000000
0000000000000000000000000000000000000000000000000000000000000000000000000000000000000000000000000000000000000000000000000000000000
0000000000000000000000000000000000000000000000000000000000000000000000000000000000000000000000000000000000000000000000000000000000
0000000000000000000000000000000000000000000000000000000000000000000000000000000000000000000000000000000000000000000000000000000000
0000000000000000000000000000000000000000000000000000000000000000000000000000000000000000000000000000000000000000000000000000000000
0000000000000000000000000000000000000000000000000000000000000000000000000000000000000000000000000000000000000000000000000000000000
0000000000000555555555555555555555555555555555555555555555555555555555555555555555555555555555555555555555555555555550000000000000
0000000000555555555555555555555555555555555555555555555555555555555555555555555555555555555555555555555555555555555555550000000000
0000000000522222222222222222222222222222222222222222222222222222222222222222222222222222222222222222222222222222222225550000000000
0000000000522222222222222222222222222222222222222222222222222222222222222222222222222222221112222222222222222222222225550000000000
0000000000522222222222222222222222222222222222222222222222222222222222222222222222222222111111112222222222222222222225550000000000
0000000000522222222222222222222222222222222222222222222222222222222222222222222222222222211111122222222222222222222225550000000000
0000000000522222222222222222222222222222222222222222222222222222222222222222222222222222221111222222222222222222222225550000000000
0000000000522222222222222222222222222222222222222222222222222222222222222222222222222222222222222222222222222222222222550000000000
0000000000522222222222222222222222222222222222222222222222222222222222222222222222222222222222222222222222222222222222550000000000
0000000000522222222222222222222222222222222222222222222222222222222222222222222222222222222222222222222222222222222222550000000000
0000000000522232222222222222222222222222222222222222222222222222222222222222222222222222222222222222222222222222222222550000000000
0000000000522222222222222222222222222222222222222226622222222222222222222222222222222222222222222222222222222222222222550000000000
0000000000522222222222222222222222222222222222222266662222222222222222222222222222222222222222222222222222222222222222550000000000
0000000000522222222222222222222222222222222222226666666662222222222222222222222222222222222222222222222333332222222222550000000000
0000000000522222222222222222222222222222222222222666666222222222222222222222222222222222222222222222233333333322222222550000000000
0000000000522222222222222222222222222222222222222266666222222222222222222222222222222222222222222222333333333332222222250000000000
0000000000522222222222222222222222222222222222222666662222222222222222222222222222222222222222222222222333333222222222250000000000
0000000000552222222222222222222222222222222222222266662222222222222222222222222222222222222222222222222222222222222222250000000000
0000000000555522222222222222222222222222222222222226662222222222222222222222222222222222222222222222222222222222222222550000000000
0000000000555555222222222222222222222222222222222266622222222222222222222222222222222222222222222222222222222222222225550000000000
0000000000555555555555555555555555555555555555555555555555555555555555555555555555555555555555555555555555555555555555550000000000
0000000000000000000000000000000000000000000000000000000000000000000000000000000000000000000000000000000000000000000000000000000000
0000000000000000000000000000000000000000000000000000000000000000000000000000000000000000000000000000000000000000000000000000000000
0000000000000000000000000000000000000000000000000000000000000000000000000000000000000000000000000000000000000000000000000000000000
0000000000000000000000000000000000000000000000000000000000000000000000000000000000000000000000000000000000000000000000000000000000
0000000000000000000000000000000000000000000000000000000000000000000000000000000000000000000000000000000000000000000000000000000000
0000000000000000000000000000000000000000000000000000000000000000000000000000000000000000000000000000000000000000000000000000000000
0000000000000000000000000000000000000000000000000000000000000000000000000000000000000000000000000000000000000000000000000000000000
0000000000000000000000000000000000000000000000000000000000000000000000000000000000000000000000000000000000000000000000000000000000
0000000000000000000000000000000000000000000000000000000000000000000000000000000000000000000000000000000000000000000000000000000000
0000000000000000000000000000000000000000000000000000000000000000000000000000000000000000000000000000000000000000000000000000000000