000000000000000000000000000000000000000000000000000000000000000000000000000000000000000000000000000000000000000000000000000000000000000000000000000000000000000000000000000000000000000000000000000000000000
000000000000000000000000000000000000000000000000000000000000000000000000000000000000000000000000000000000000000000000000000000000000000000000000000000000000000000000000000000000000000000000000000000000000
000000000000000000000000000000000000000000000000000000000000000000000000000000000000000000000000000000000000000000000000000000000000000000000000000000000000000000000000000000000000000000000000000000000000
000000000000000000000000000000000000000000000000000000000000000000000000000000000000000000000000000000000000000000000000000000000000000000000000000000000000000000000000000000000000000000000000000000000000
000000000000000000000000000000000000000000000000000000000000000000000000000000000000000000000000000000000000000000000000000000000000000000000000000000000000000000000000000000000000000000000000000000000000
000000000000000000000000000000000000000000000000000000000000000000000000000000000000000000000000000000000000000000000000000000000000000000000000000000000000000000000000000000000000000000000000000000000000
000000000000000000000000000000000000000000000000000000000000000000000000000000000000000000000000000000000000000000000000000000000000000000000000000000000000000000000000000000000000000000000000000000000000
000000000055555555555555555555555555555555555555555555555555555555555555555555555555555555555555555555555555555555555555555555555555555555555555555555555555555555555555555555555555555555555555550000000000
000000000055555555555555555555555555555555555555555555555555555555555555555555555555555555555555555555555555555555556666666555555555555555555555555555555555555555555555555555555555555555555555550000000000
000000000055555555555555555555554444444555555555555555555555555555555555555522222222222222222222222222222222222222666666666666555555555555555555555555555555555555555555555555555555555555555555550000000000
000000000055555555555555552222555544444455555555555555555555555555555555555222222222222222222222222222222222222222226666666666665555555555555555555555555555555555555555555555555555555555555555550000000000
000000000055555555555555552222555444444444555555555555555555555555555555522222222222222222222222222222222222222222222226666666666622222222555555555555555555555555555555555555555555555555555555550000000000
000000000055555555555555555555555444444444455555555555555555555555555555222222222222222222222222222222222222222222222222226666662222222222222255555555555555555555555555555555555555555555555555550000000000
000000000055555555555555555555544444444444455555555555555555555555555552222222222222222222222222222222222222222222222222222222222222222222222222255555555555555555555555555555555555555555555555550000000000
000000000055555555555555555554444444444455555555555555555555555555555555222222222222222222222222222222222222222222222222222222222222222222222222222555555555555555555555555555555555555555555555550000000000
000000000055555555555555444444444444455555555555555555555555555555555555522222222222222222222222222222222222222222222222222222222222222222222222222222555555555555555555555555555555555555555555550000000000
000000000055555555555444444444444455555555555555555555555555555555555555555522222222222222222222222222222222222222222222222222222222222222222222222222222255555555555555555555555555555555555555550000000000
000000000055555555444444444444455555555555555555555555555555555555555555555555555222222222266666666666662222222222222222222222222222222222222222222222222222222255555555555555555555555555555555550000000000
000000000055555544444444444445555111111115555555555555555555555555555555555555555555555555666666666666666655555555555555555555555555222222222222222222222222222222225555555555555555555555555555550000000000
000000000044444444444444444555551111111111555555555555555555555555555555555555555555555555555566666666665555555555555555555555555555555552222222222222222222222222222222255555555555555555555555550000000000
000000000044444444444444445555511111111111155555555555555555555555555555555555555555555555555555555555555555555555555555555555555555555555555522222222222222222222222222222222555555555555555555550000000000
000000000044444444444445555555111111111111115555555555555555555555555555555555555555555555555555555555555555555555555555555555555555555555555555552222222222222222222222222222222255555555555555550000000000
000000000044444444445555555551111111111111111555555555555555555555555555555555555555555555555555555555555555555555555555555555555555555555555555555555522222222222222222222222222555555555555555550000000000
000000000044444444555555555555111111111111111155555555555555555555555555555555555555555555555555555555555555555555555555555555555555555555566666666655555555522222222222222222222555555555555555550000000000
000000000044445555555555555555511111111111111555555555555555555555555555555555555555555555555555555555555555555555555555555555555555555555666666666666555522222222222222222222225555555555555555550000000000
000000000055555555555555555555111111111111115555555555555555555555555555555555555555555555555555555555555555555555555555555555555555555555556666666666655552222222222222222222222555555555555555550000000000
000000000055555555555555555551111111111111155555555555555555555555555555555555555555555555555555555555555555555555555555555555555555555555555666666666665555222222222222222222222255555555555555550000000000
000000000055555555555555555511111111111111555555555555555555555555555555555555555555555555555555555555555555555555555555555555555555555555556666666666666555522222222222222222222225555555555555550000000000
000000000055555555555555551111111111111115555555555555555555555555555555555555555555555111111111111111111111555555555555555555555555555555556666666666666555552222222222222222222222555555555555550000000000
000000000055555555555555511111111111111115555555555555555555555555555555555555555551111111111111111111111111111555555555555555555555555555555666666666666666555222222222222222222222255555555555550000000000
000000000055555555555555551111111111111155555555555555555555555555555555555555551111111111111111111111111111111115555555555555555555555555555555566666666666666555522222222222222222222225555555550000000000
000000000055555555555555555111111111111155555555555555555555555555555555551111111111111111111111111111111111111155555555555555555555555555555555555556666666666555552222222222222222222222555555550000000000
000000000055555555555555551111111111115555555555555555555555555551111111111111111111111111111111111111111111115555555555555555555555555555555555555555556666655555552222222222222222222222555555550000000000
000000000055555555555555111111111111555555555555555555551111111111111111111111111111111111111111111111111111111155555555555555555555555444455555555555555555555555555555222222222222222255555555550000000000
000000000055555555555555551111111555555555555555555555555111111111111111111111111111111111111111111111111111111115555555555555555555544444444555555555555555555555555555555555555555555555555555550000000000
000000000055555555555555555511115555555555555555555555555555511111111111111111111111111111111111111111111111111111155555555555555555544444444445555555555555555555555555555555555333333333335555550000000000
000000000055555555555555555555555555555555555555555555555555555555111111111111111111111111111111111111111111111111111555555555555554444444444444455555555555555555555555555555533333333333333355550000000000
000000000055555555555555555555555555555555555555555555555555555555555511111111111111111111111111111111111111111111111111115555555555554444444445555555555555555555555555555555333333333333333333550000000000
000000000055555555555555555555555555555555555555555555555555555555555555551111111111111111111111111111111111111111111111111111555555555554444455555555555555555555555555555555333333333333333333350000000000
000000000055555555555555555555555555555555555555555555555555555555555555111111111111111111111111111111111111111111111111111111115555555555544555555555555555555555555555555555555533333333333355550000000000
000000000055555555555555555555555555555555555555555555555555555555555111111111111111111111111111111111111111111111111111111111111111555555555555555555555555555555555555555555555555553333355555550000000000
000000000055555555555555555555555555555555555555555555555555555551111111111111111111111111111111111111111111111111111111111111111111115555555555555555555555555555555555555555555555555555555555550000000000
000000000000000000000000000000000000000000000000000000000000000000000000000000000000000000000000000000000000000000000000000000000000000000000000000000000000000000000000000000000000000000000000000000000000
000000000000000000000000000000000000000000000000000000000000000000000000000000000000000000000000000000000000000000000000000000000000000000000000000000000000000000000000000000000000000000000000000000000000
000000000000000000000000000000000000000000000000000000000000000000000000000000000000000000000000000000000000000000000000000000000000000000000000000000000000000000000000000000000000000000000000000000000000
000000000000000000000000000000000000000000000000000000000000000000000000000000000000000000000000000000000000000000000000000000000000000000000000000000000000000000000000000000000000000000000000000000000000
000000000000000000000000000000000000000000000000000000000000000000000000000000000000000000000000000000000000000000000000000000000000000000000000000000000000000000000000000000000000000000000000000000000000
000000000000000000000000000000000000000000000000000000000000000000000000000000000000000000000000000000000000000000000000000000000000000000000000000000000000000000000000000000000000000000000000000000000000
000000000000000000000000000000000000000000000000000000000000000000000000000000000000000000000000000000000000000000000000000000000000000000000000000000000000000000000000000000000000000000000000000000000000
